<?xml version="1.0" standalone="no"?>
<!DOCTYPE svg PUBLIC "-//W3C//DTD SVG 20010904//EN"
 "http://www.w3.org/TR/2001/REC-SVG-20010904/DTD/svg10.dtd">
<svg version="1.0" xmlns="http://www.w3.org/2000/svg"
 width="2.2rem" viewBox="0 0 64.000000 62.000000"
 preserveAspectRatio="xMidYMid meet">

<g transform="translate(0.000000,62.000000) scale(0.100000,-0.100000)"
fill="#3b4459" stroke="none">
<path d="M251 554 c-18 -15 -37 -38 -42 -51 -8 -21 -14 -23 -78 -23 -57 0 -72
-3 -79 -17 -8 -16 20 -326 33 -361 7 -19 461 -17 468 2 11 27 40 343 34 359
-5 14 -20 17 -76 17 -67 0 -71 1 -85 28 -22 43 -52 64 -99 69 -36 4 -48 1 -76
-23z m127 -41 l27 -28 -79 -3 c-43 -2 -81 0 -84 3 -3 3 5 16 18 30 33 35 82
34 118 -2z m-140 -110 c-2 -26 -8 -38 -18 -38 -10 0 -16 12 -18 38 -3 32 0 37
18 37 18 0 21 -5 18 -37z m200 0 c-2 -26 -8 -38 -18 -38 -10 0 -16 12 -18 38
-3 32 0 37 18 37 18 0 21 -5 18 -37z"/>
</g>
</svg>
